Céramique # Keramik # Ceramic # Cerámica;Conteneur #  Behälter # Container # Recipiente;Amphore # Amphore # Amphora # Anfora;
;;Dolium # Dolium # Dolium # Dolium;
;;Autres # Anderes # Others # Otros;
;Vaisselle # Feinkeramik # Cockery # Vajilla;Cruche # Krug # Jar # Jarra;Import # Importware # Import # Importación
;;;Locale # Lokale Ware # Local # Local
;;;Les deux # Beide # Both # Ambos
;;Coupe # Schüssel # Goblet # Copa;Import # Importware # Import # Importación
;;;Locale # Lokale Ware # Local # Local
;;;Les deux # Beide # Both # Ambos
;;Urne # Urne # Urn # Urna;Import # Importware # Import #Importación
;;;Locale # Lokale Ware # Local # Local
;;;Les deux # Beide # Both # Ambos
;;Bouteille # Flasche # Bottle # Botella;Import # Importware # Import #Importación
 ;;;Locale # Lokale Ware # Local # Local
;;;Les deux # Beide # Both # Ambos
;;Couvercle # Deckel # Lid # Tapa;Import # Importware # Import #Importación
;;;Locale # Lokale Ware # Local # Local
;;;Les deux # Beide # Both # Ambos
;;Passoire # Sieb # Sieve # Colador;Import # Importware # Import #Importación
;;;Locale # Lokale Ware # Local # Local
;;;Les deux # Beide # Both # Ambos
;;Entonnoir # Trichter # Funnel # Embudo;Import # Importware # Import #Importación
;;;Locale # Lokale Ware # Local # Local
;;;Les deux # Beide # Both # Ambos
;;Mortier # Mörser # Mortar # Mortero;Import # Importware # Import #Importación
;;;Locale # Lokale Ware # Local # Local
;;;Les deux # Beide # Both # Ambos
;;Tasse # Tasse # Cup # Taza;Import # Importware # Import #Importación
;;;Locale # Lokale Ware # Local # Local
;;;Les deux # Beide # Both # Ambos
;;Assiette # Teller # Plate # Plato;Import # Importware # Import #Importación
;;;Locale # Lokale Ware # Local # Local
;;;Les deux # Beide # Both # Ambos
;;Microvase  #  Miniaturgefässe # Miniature pot # Vaso miniatura;Import # Importware # Import #Importación
;;;Locale # Lokale Ware # Local # Local
;;;Les deux # Beide # Both # Ambos
;;Autres # Anderes # Others # Otros;Import # Importware # Import #Importación
;;;Locale # Lokale Ware # Local # Local
;;;Les deux # Beide # Both # Ambos
;;Non renseigné # Nicht dokumentiert  # Undocumented # No documentado;Import # Importware # Import #Importación
;;;Locale # Lokale Ware # Local # Local
;;;Les deux # Beide # Both # Ambos
;Urne funéraire # Graburne # Funerary Urn # Urna cineraria;;
;Terres cuites architecturales # Baumaterial # Architectural Terra-cotta # Arquitectura de tierra cocida;Tuile # Ziegel # Tile # Teja;Inscription # Inschrift # Inscription # Inscripción
;;Hypocauste # Hypocaust # Hypocaust # Hipocausto;Inscription # Inschrift # Inscription # Inscripción
;;Cloison # Trennwand # Partition #  Separación;Inscription # Inschrift # Inscription # Inscripción
;;Brique # Backstein # Brick # Ladrillo;Inscription # Inschrift # Inscription # Inscripción
;;Autres # Anderes # Others # Otros;Inscription # Inschrift # Inscription # Inscripción
;;;Pots de poêle # Ofentopf # Stove pots # Ollas
;;;Carreaux de poêle # Kachelofen # Stove tiles # Hogar
;Autres # Anderes # Others # Otros;Statuette # Figur # Statuette # Estatuilla;
;;Lampe # Lampe # Lamp # Lámpara;
;;Textile # Textil # Textile # Textil;
;;Parure # Schmuck # Jewellery # Adorno;
;;Jeux # Spiele # Games # Juegos;
;;Jetons # Spielstein # Tokens # Token;
;;Chenet # Feuerbock # Andiron # Morillo;
;;Balle de fronde # Schleuderstein # Sling # Bala de honda;
;;Creuset # Tiegel # Crucible # Crisol;
;;Briquetage # Briquetage # Briqueting # Briquetas;
;;Brûle-parfum # Räucherfass # Perfume burner # Quemador de perfumes;
Métal # Metall # Metal # Metal;Armement # Waffen Rüstungen # Weaponry # Armamento;Casque # Helm # Helmet # Casco;
;;Épée # Schwert # Sword # Espada;
;;Lance # Lanze # Spear # Lanza;
;;Bouclier # Schild # Schield # Escudo;
;;Cuirasse # Panzer # Breastplate # Coraza;
;;Hache # Axt # Axe # Hacha;
;;Balle de fronde # Schleuderstein # Sling # Bala de honda;
;;Pointe de flèche # Pfeilspitze # Arrowhead # Punta de flecha;
;;Poignard # Dolch # Dagger # Puñal;
;;Autres # Anderes # Others # Otros;
;Vaisselle # Geschirr # Cockery # Vajilla;;
;Harnachement # Pferdegeschirr # Harness # Arreos;Mors # Gebiss # Bit # Bocado de caballo;
;;Passe-guides # Führungsring  # Buckles # Hebillas;
;;Hipposandale # Hufschuh # Horse-boot # Hiposandalia;
;;Char # Wagen # Cart # Carro;
;Monnaies # Münzen # Coins # Monedas;Or # Gold # Gold # Oro;
;;Argent # Silber # Silver # Plata;
;;Bronze # Bronze # Bronze # Bronce;
;;Potin # Potinmünze # Pewter # Potin;
;;Electrum # Electrum # Electrum # Electro;
;;Monnaie fourrée # Plattiert # Plated coin # Moneda forrada;
;;Fausse monnaie # Falschmünze # Counterfeit currency # Moneda falsa;
;;Autres # Anderes # Others # Otros;
;Parure # Tracht # Jewellery # Adorno;Fibule # Fibel # Fibula # Fíbula;
;;Épingle # Nadel # Pin # Alfiler;
;;Parure annulaire # Ringförmig # Armring # Adorno anular;Torque # Torques # Torque # Torques
;;;Bracelet # Armreif # Bracelet # Brazalete
;;;Bague # Ring # Ring # Anillo
;;;Anneau de cheville # Beinreif # Anklets # Tobilleras
;;Ceinture # Gürtel # Belt # Cinturón;
;;Pendeloque # Gehänge # Pendant # Colgante;
;;Boucle d'oreille # Ohrring # Earring # Pendiente;
;;Autres # Anderes # Others # Otros;
;Autres # Anderes # Others # Otros;Lingots # Barren # Ingots # Lingotes;
;;Scories #  Schlacke # Slag # Escorias;
;;Statuette # Figur # Statuette # Estatuilla;
;Outils # Werkzeug # Tools # Herramientas;Faucille # Sense # Sickle # Hoz;
;;Marteau # Hammer # Hammer # Martillo;
;;Hache # Axt # Axe # Hacha;
;;Couteau # Messer # Knife # Cuchillo;
;;Forces # Schere # Schears # Tenazas;
;;Clous # Nagel # Nails # Clavos;
;;Toilette # Toilettenbesteck # Toiletry # Neceser de aseo;
;;Poids # Gewicht  # Weights # Pesas;
;;Burin # Meissel # Cold chisel # Buril;
;;Autres # Anderes # Others # Otros;
Lithique # Stein # Stone # Lítico;Outils #  Werkzeug # Tools # Herramientas;Mouture # Mahlstein # Grinding # Molienda;Grès # Sandstein #  Sandstone # Gres
;;;Calcaire # Kalkstein # Limestone # Piedra caliza
;;;Basalte # Basalt # Baslalt # Basalto
;;;Rhyolite # Rhyolith # Rhyolith # Riolita
;;;Silex # Silex # Flint #Sílex
;;;Autres # Anderes # Others # Otros
;;Hache # Axt # Axe # Hacha;Grès # Sandstein #  Sandstone # Gres
;;;Calcaire # Kalkstein # Limestone # Piedra caliza
;;;Basalte # Basalt # Baslalt # Basalto
;;;Rhyolite # Rhyolith # Rhyolith # Riolita
;;;Silex # Silex # Flint #Sílex
;;;Autres # Anderes # Others # Otros
;;Racloir # Kratzer # Scraper # Raspador;Grès # Sandstein #  Sandstone # Gres
;;;Calcaire # Kalkstein # Limestone # Piedra caliza
;;;Basalte # Basalt # Baslalt # Basalto
;;;Rhyolite # Rhyolith # Rhyolith # Riolita
;;;Silex # Silex # Flint #Sílex
;;;Autres # Anderes # Others # Otros
;;Polissoir # Polierwerkzeug # Polisher # Pulidor;Grès # Sandstein #  Sandstone # Gres
;;;Calcaire # Kalkstein # Limestone # Piedra caliza
;;;Basalte # Basalt # Baslalt # Basalto
;;;Rhyolite # Rhyolith # Rhyolith # Riolita
;;;Silex # Silex # Flint #Sílex
;;;Autres # Anderes # Others # Otros
;;Autres # Anderes # Others # Otros;Grès # Sandstein #  Sandstone # Gres
;;;Calcaire # Kalkstein # Limestone # Piedra caliza
;;;Basalte # Basalt # Baslalt # Basalto
;;;Rhyolite # Rhyolith # Rhyolith # Riolita
;;;Silex # Silex # Flint #Sílex
;;;Autres # Anderes # Others # Otros
;Armement # Waffen # Weaponry # Armamento;;
;Bloc architectural  # Baustein # Architectural Stone # Piedra de arquitectura;Grès # Sandstein #  Sandstone # Gres;Inscription # Inschrift # Inscription # Inscripción
;;;Décor # Figürlich # Decoration # Decoración
;;Calcaire # Kalkstein # Limestone # Piedra caliza;Inscription # Inschrift # Inscription # Inscripción
;;;Décor # Figürlich # Decoration # Decoración
;;Marbre # Marmor # Marble # Marmol;Inscription # Inschrift # Inscription # Inscripción
;;;Décor # Figürlich # Decoration # Decoración
;;Autres # Anderes # Others # Otros;Inscription # Inschrift # Inscription # Inscripción
;;;Décor # Figürlich # Decoration # Decoración
;Mosaïque  # Mosaik # Mosaic # Mosaico;;
;Statuaire # Statue # Statuary # Estatua;Grès # Sandstein #  Sandstone # Gres;Inscription # Inschrift # Inscription # Inscripción
;;Calcaire # Kalkstein # Limestone # Piedra caliza;Inscription # Inschrift # Inscription # Inscripción
;;Marbre # Marmor # Marble # Marmol;Inscription # Inschrift # Inscription # Inscripción
;;Autres # Anderes # Others # Otros;Inscription # Inschrift # Inscription # Inscripción
;Autres # Anderes # Others # Otros;Borne # Meilenstein # Boundary Stone # Hito de marca;Inscription # Inschrift # Inscription # Inscripción
;;Stèle # Stele # Stele # Estela;Inscription # Inschrift # Inscription # Inscripción
;;Sarcophage # Sarkophag # Sarcophagus # Sarcófago;Inscription # Inschrift # Inscription # Inscripción
Os # Knochen # Bone # Hueso ;Ossements humains # Menschenknochen # Human bones # Huesos humanos;Tabletterie # Knochenschnitzerei # Marquetry # Eborario;
;;Outils # Werkzeug # Tools # Herramientas;
;;Parure # Schmuck # Jewellery # Adorno;
;;Autres # Anderes # Others # Otros;
;Ossements animaux # Tierknochen # Animal bones # Huesos animales;Tabletterie # Knochenschnitzerei # Marquetry # Eborario;
;;Outils # Werkzeug # Tools # Herramientas;
;;Parure # Schmuck # Jewellery # Adorno;
;;Autres # Anderes # Others # Otros;
;Indéterminé # Unbestimmt # Unknown # Indeterminado;Tabletterie # Knochenschnitzerei # Marquetry # Eborario;
;;Outils # Werkzeug # Tools # Herramientas;
;;Parure # Schmuck # Jewellery # Adorno;
;;Autres # Anderes # Others # Otros;
Verre # Glas # Glass # Vidrio;Parure # Schmuck # Jewellery # Adorno;Perle # Perle # Pearl # Perla;
;;Bracelet # Armreifen # Bracelet # Brazalete;
;Vaisselle # Geschirr # Cockery # Vajilla;;
;Vitre # Fensterglas # Window # Ventana;;
;Autres # Anderes # Others # Otros;;
Végétal - organique # Pflanzen - Organisches # Vegetal – organic materials # Vegetal – orgánico;Embarcation # Wasserfahrzeug # Watercraft # Barco;Barque # Barke # Rowboat # Barca;
;;Pirogue # Piroge # Pirogue # Piragua;
;;Navire # Schiff # Vessel # Buque;
;Élément de construction # Bauelement #  Building component # Elemento de construcción;Cuvelage # Schachtausbau # Casing # Revestimiento;
;;Bardeau # Schindel # Shingle # Tablilla;
;Meuble # Möbelstück # Furniture # Mueble;;
;Équipement # Ausrüstung # Equipement # Equipamiento;;
;Tonneau # Fass # Barrel # Barril;;
;Vaisselle # Geschirr # Cockery # Vajilla;;
;Outils # Werkzeug # Tools # Herramientas;;
;Vannerie # Korbware # Wickerwork # Cestería;;
;Corde # Seil # Rope # Cuerda;;
;Cuir # Leder # Leather # Cuero;;
;Textile # Textil # Textile # Textil;;
;Autres # Anderes # Others # Otros;;
Autres # Anderes # Others # Otros;Enduits # Putz # Coating # Enlucido;;
